…
------------------------------------------------------------------------

### filter(): Choose Rows


``` r
# Filter high mass proteins
proteomics_data %>%
  filter(mass > 100000) %>%
  select(accession, gene, mass)
#> # A tibble: 87 × 3
#>    accession  gene          mass
#>    <chr>      <chr>        <dbl>
#>  1 F1LMU0     F1LMU0     222850.
#>  2 Q64578     AT2A1      109409.
#>  3 D4AEH9     D4AEH9     174331.
#>  4 G3V7K1     G3V7K1     164712.
#>  5 A0A0G2K5P5 A0A0G2K5P5 187602.
#>  6 D3ZA38     D3ZA38     128936.
#>  7 Q03626     MUG1       165326 
#>  8 Q8R4I6     Q8R4I6     103013.
#>  9 D3ZHA0     FLNC       290984.
#> 10 A0A096MK15 A0A096MK15 772118.
#> # ℹ 77 more rows
…
# OR conditions
proteomics_data %>%
  filter(mass > 200000 | peptide_count > 300) %>%
  select(accession, gene, mass, peptide_count)
#> # A tibble: 29 × 4
#>    accession  gene          mass peptide_count
#>    <chr>      <chr>        <dbl>         <dbl>
#>  1 F1LMU0     F1LMU0     222850.           338
#>  2 D3ZHA0     FLNC       290984.            55
#>  3 A0A096MK15 A0A096MK15 772118.           133
#>  4 F1LRV9     F1LRV9     223400.           240
#>  5 A0A0G2JU96 A0A0G2JU96 571866.            34
#>  6 M0R9L0     M0R9L0     220194.            28
#>  7 A0A0G2K7B6 A0A0G2K7B6 242460.            24
#>  8 F7F9U6     F7F9U6     517417.            16
#>  9 A0A0G2JUP3 A0A0G2JUP3 815466.             8
#> 10 G3V6E1     G3V6E1     219575.           173
#> # ℹ 19 more rows
```
…
